{
    "document":{
        "options":{
            "title":"string",
            "favicon":"string",
            "scripts":"object",
            "styles":"object",
            "manifest":"string"
        },
        "body":"object"
    },
    "main":{
        "options":{
            "botton":{
                "options":{
                    "name":"string",
                    "icon":{
                        "options":{
                            "img":"string",
                            "style":"string",
                            "accions":{
                                "options":{
                                    "name":"string",
                                    "require":{
                                        "options":{
                                            "style":"string"
                                        },
                                        "body":"object"
                                    }
                                },
                                "body":"object"
                            }
                        },
                        "body":"object"
                    }
                },
                "body":"object"
            },
            "menu":{
                "options":{
                    "name":"string",
                    "btn":{
                        "options":{
                            "id":"string"
                        },
                        "body":"object"
                    },
                    "content":{
                        "options":{
                            "list":{
                                "options":{
                                    "link":{
                                        "options":{
                                            "title":"string",
                                            "list":"object",
                                            "style":"string",
                                            "footer":"string"
                                        },
                                        "body":"object"
                                    },
                                    "phone":{
                                        "options":{
                                            "title":"string",
                                            "list":"object",
                                            "content":"string",
                                            "style":"string"
                                        },
                                        "body":"object"
                                    },
                                    "image":{
                                        "options":{
                                            "url":"string",
                                            "title":"string",
                                            "style":"string"
                                        },
                                        "body":"object"
                                    },
                                    "text":{
                                        "options":{
                                            "style":"string",
                                            "content":"string"
                                        },
                                        "body":["string","object"]
                                    },
                                    "title":"string",
                                    "subtitle":"string",
                                    "list":{
                                        "options":{
                                            "title":"string",
                                            "list":{
                                                "options":{
                                                    "image":"string"
                                                },
                                                "body":["string","object"]
                                            },
                                            "style":"string",
                                            "footer":"string"
                                        },
                                        "body":"object"
                                    }
                                },
                                "body":["string","object"]
                            },
                            "subtitle":{
                                "options":{
                                    "content":"string",
                                    "style":"string"
                                },
                                "body":"object"
                            },
                            "title":{
                                "options":{
                                    "content":"string",
                                    "style":"string"
                                },
                                "body":"object"
                            }
                        },
                        "body":"object"
                    },
                    "component":{
                        "options":{
                            "name":"string",
                            "url":"string"
                        },
                        "body":"object"
                    }
                },
                "body":"object"
            }
        },
        "body":"object"
    }
}